@startuml
' Remote sprites and schemes
!includeurl https://gitlab.com/wirescrossed/plantuml/raw/master/scheme.puml

' Diagram Workspace
title Network Diagram - Connections
footer Author: Your Name
left to right direction

rectangle "<$switch>\n**switch0**\n//description//" as switch0
rectangle "<$switch>\n**switch1**\n//description//" as switch1
switch0 --- switch1

rectangle "<$switch>\n**switch0**\n//description//" as switch2
rectangle "<$switch>\n**switch1**\n//description//" as switch3
switch2 ... switch3

rectangle "<$switch>\n**switch0**\n//description//" as switch4
rectangle "<$switch>\n**switch1**\n//description//" as switch5
switch4 --- switch5 #Red

rectangle "<$switch>\n**switch0**\n//description//" as switch6
rectangle "<$switch>\n**switch1**\n//description//" as switch7
switch6 "Left\nNext Line" --- "Etx\na.b.c.d\e" switch7 : Middle Description

rectangle "<$switch>\n**switch0**\n//description//" as switch8
rectangle "<$switch>\n**switch1**\n//description//" as switch9
switch8 --- switch9
switch8 --- switch9
switch8 --- switch9
switch8 --- switch9
@enduml
